…
# tidy accel
accel = accel %>% 
  mutate(seqn = as.character(seqn))

# merge covar and accel
minute_cols = names(accel %>% select(starts_with("min")))

mims_data = covar_clean %>%
  inner_join(accel %>% select(seqn, all_of(minute_cols)), by = "seqn")
  
mims_data
```

    ## # A tibble: 227 × 1,445
    ##    seqn  sex      age   bmi education     min1   min2   min3  min4   min5   min6
    ##    <chr> <fct>  <int> <dbl> <fct>        <dbl>  <dbl>  <dbl> <dbl>  <dbl>  <dbl>
    ##  1 62177 male      51  20.1 high school… 6.14  8.06   9.99   6.60  4.57   2.78  
    ##  2 62178 male      80  28.5 high school… 0.167 0.429  0.131  1.20  0.0796 0.0487
    ##  3 62180 male      35  27.9 more than h… 0.039 0      0      0     0.369  0.265 
    ##  4 62184 male      26  22.1 high school… 1.55  2.81   3.86   4.76  6.10   7.61  
    ##  5 62189 female    30  22.4 more than h… 2.81  0.195  0.163  0     0.144  0.180 
    ##  6 62191 male      70  NA   high school… 2.84  2.44   2.36   1.87  2.33   1.63  
    ##  7 62199 male      57  28   more than h… 0.031 0.0359 0.0387 0.079 0.109  0.262 
    ##  8 62202 male      36  24.7 less than h… 3.68  3.28   4.37   4.03  1.63   2.82  
    ##  9 62205 male      28  28.9 more than h… 6.81  8.65   6.77   9.52  7.78   9.78  
    ## 10 62206 female    35  29.1 more than h… 1.27  2.22   0.845  1.02  0.414  0.283 
    ## # ℹ 217 more rows
    ## # ℹ 1,434 more variables: min7 <dbl>, min8 <dbl>, min9 <dbl>, min10 <dbl>,
    ## #   min11 <dbl>, min12 <dbl>, min13 <dbl>, min14 <dbl>, min15 <dbl>,
    ## #   min16 <dbl>, min17 <dbl>, min18 <dbl>, min19 <dbl>, min20 <dbl>,
    ## #   min21 <dbl>, min22 <dbl>, min23 <dbl>, min24 <dbl>, min25 <dbl>,
    ## #   min26 <dbl>, min27 <dbl>, min28 <dbl>, min29 <dbl>, min30 <dbl>,
    ## #   min31 <dbl>, min32 <dbl>, min33 <dbl>, min34 <dbl>, min35 <dbl>, …
…
